Combining zoning systems • zonebuilder
…
NLD_cities = readRDS(url("https://github.com/zonebuilders/zonebuilder/releases/download/0.0.1/NLD_cities.Rds"))
NLD_wijk_od = readRDS(url("https://github.com/zonebuilders/zonebuilder/releases/download/0.0.1/NLD_wijk_od.Rds"))
NLD_wijk_centroids = readRDS(url("https://github.com/zonebuilders/zonebuilder/releases/download/0.0.1/NLD_wijk_centroids.Rds"))

Let’s take a look at the NLD_cities data:

NLD_cities %>% arrange(desc(population))
#> Simple feature collection with 35 features and 2 fields
#> geometry type:  POINT
#> dimension:      XY
#> bbox:           xmin: 3.569799 ymin: 50.85124 xmax: 6.894054 ymax: 53.21907
#> epsg (SRID):    4326
#> proj4string:    +proj=longlat +datum=WGS84 +no_defs
#> # A tibble: 35 x 3
#>    name                     geometry population
#>    <chr>                 <POINT [°]>      <int>
#>  1 Amsterdam     (4.893604 52.37276)     810935
#>  2 Rotterdam      (4.463173 51.9229)     618355
#>  3 's-Gravenhage (4.311346 52.07998)     508940
#>  4 Utrecht       (5.109708 52.09498)     328165
#>  5 Eindhoven     (5.478633 51.43926)     220920
#>  6 Tilburg       (5.083076 51.55847)     210270
#>  7 Groningen     (6.568008 53.21907)     198315
#>  8 Almere        (5.216168 52.37509)     196010
#>  9 Breda         (4.776024 51.58878)     179620
#> 10 Nijmegen       (5.86347 51.84274)     168290
#> # … with 25 more rows
…
